[
  {
    "opcdispsue": "0",
    "premiotop": "0",
    "puestotop": "0",
    "opcdispovip": "0"
  },
  {
    "opcdispest": "0",
    "opcdispsue": "0",
    "premiotop": "0",
    "puestotop": "0",
    "opcdispovip": "0"
  }
]